source	target	start_time
41	192	1179
210	178	495
158	171	23
219	97	435
102	188	1190
193	218	1114
14	4	641
217	7	848
117	83	714
135	99	161
66	209	215
215	36	208
167	92	585
21	54	152
174	131	1101
135	46	251
58	144	107
89	110	1219
11	57	210
178	24	1006
147	15	1103
39	169	464
30	191	762
206	105	22
133	153	500
143	145	1157
149	108	897
186	178	284
20	115	406
131	156	163
138	68	526
101	55	536
25	70	818
214	126	932
129	144	264
99	191	683
165	139	732
170	120	980
199	12	801
123	159	1243
208	143	1276
122	206	1173
205	54	798
35	85	698
2	217	1155
108	34	579
180	52	310
87	202	1215
40	170	888
180	213	1050
21	201	968
7	149	112
172	166	84
40	62	47
30	144	931
33	136	59
31	51	910
139	96	1209
148	9	311
71	15	164
185	210	303
87	99	474
73	35	411
173	168	465
121	170	1013
58	105	1317
113	166	136
86	6	840
132	156	960
31	65	542
165	79	1238
194	134	246
116	107	1148
207	204	1011
61	22	300
54	175	589
71	12	1202
27	153	296
15	10	371
177	179	1292
17	207	475
39	33	1090
92	41	636
165	148	1170
9	143	988
108	114	249
63	78	802
166	35	1114
120	173	476
120	18	1173
55	103	932
21	179	479
171	203	353
5	139	243
195	28	1008
42	177	302
76	173	439
107	23	541
123	30	598
17	130	777
16	85	127
32	71	1014
43	156	581
202	2	182
31	185	1132
47	20	891
161	157	979
57	208	843
112	53	656
7	66	908
8	149	456
186	22	706
200	108	502
85	170	1257
115	148	611
77	29	830
42	143	1109
87	184	1017
115	124	244
60	44	644
27	188	923
53	70	1135
215	18	359
103	80	558
152	24	1048
17	169	154
17	115	8
108	172	1045
158	191	964
148	22	476
170	23	1143
86	164	996
115	28	1061
161	218	1255
81	8	115
7	187	262
164	10	351
80	30	1033
148	60	1188
111	169	192
200	20	412
78	84	186
213	141	1258
42	210	1043
199	133	25
74	165	201
172	66	849
89	90	946
75	29	223
93	35	61
124	203	219
161	23	949
179	196	612
128	181	947
204	157	932
99	193	606
137	165	515
102	23	287
94	121	948
140	152	594
38	202	1074
219	135	284
121	82	131
210	13	618
67	117	22
137	31	395
208	29	306
165	122	925
121	15	749
171	94	175
141	43	175
185	196	248
188	47	351
185	42	380
42	120	479
199	175	980
192	51	1100
42	214	986
9	48	684
81	131	18
162	83	895
215	3	619
95	33	102
206	143	423
164	177	782
22	103	860
59	26	234
65	142	1219
192	73	1315
10	197	642
70	14	251
1	31	986
148	44	1265
0	47	1265
197	169	1111
13	175	940
219	78	16
167	195	886
78	171	519
159	204	1074
110	93	598
1	98	99
118	119	516
78	183	78
74	203	1308
155	159	136
53	22	629
92	19	796
131	209	702
24	140	385
162	111	98
33	19	282
87	24	795
98	78	353
94	97	1075
177	92	647
56	92	494
155	176	9
93	42	286
103	148	140
172	181	421
52	15	1252
17	0	67
143	116	491
199	213	241
159	126	90
174	103	602
138	86	569
200	118	889
200	76	1224
38	166	855
44	107	1232
195	177	850
120	126	1
71	43	495
2	69	636
55	33	896
148	18	978
56	131	1183
13	105	826
217	160	969
188	183	1244
107	182	922
45	147	579
219	176	403
196	74	852
204	36	795
2	25	107
146	90	1109
106	210	994
78	54	185
176	36	866
216	184	1173
148	110	912
190	170	345
86	104	1293
29	128	51
156	207	1184
216	132	1282
82	85	482
108	115	1168
58	22	795
30	137	632
30	106	387
170	206	839
101	208	523
90	206	480
122	155	884
102	150	1210
15	167	1291
69	13	435
1	219	154
141	5	892
60	124	105
166	79	141
92	2	620
92	81	460
154	171	117
22	142	858
177	98	167
182	98	296
105	208	744
4	30	475
99	29	905
29	91	327
219	12	313
141	203	452
39	181	730
51	18	822
26	201	1223
119	178	1245
63	166	1057
118	28	584
118	86	759
25	149	793
33	60	564
130	219	682
66	200	987
91	90	1062
66	37	676
193	3	659
131	68	32
85	193	147
7	105	576
95	25	776
78	22	252
113	215	1279
103	66	858
45	75	315
159	145	693
159	89	972
187	96	880
62	15	1269
208	83	401
188	157	680
144	119	1234
130	216	1307
191	96	1227
205	77	14
208	41	1170
149	101	358
149	39	950
213	14	1155
196	175	1146
5	61	753
141	154	745
13	51	1013
23	56	1104
148	135	212
201	206	824
179	28	16
61	155	1204
85	117	283
123	77	1006
55	1	618
73	161	722
214	149	399
73	140	990
128	111	266
34	169	1249
125	18	530
180	37	690
72	164	351
78	157	1199
116	54	1161
0	130	209
216	13	1241
58	5	14
90	159	948
162	213	847
164	161	977
106	77	554
137	143	450
149	31	551
162	54	57
180	99	738
142	149	957
32	179	638
168	161	560
149	133	668
210	74	479
113	183	859
152	145	1198
188	195	954
118	201	1111
94	72	847
9	156	631
219	27	1058
157	146	536
111	140	10
6	186	108
94	54	555
9	95	802
178	149	1170
121	199	696
64	54	870
8	27	1193
60	82	1031
26	136	1225
29	128	58
38	204	610
35	138	765
112	80	1193
149	215	762
133	43	491
196	189	533
59	84	1112
148	34	697
99	84	447
113	154	639
61	199	767
216	170	469
157	8	248
15	75	1146
110	151	956
104	63	388
129	209	1164
159	1	1070
211	162	58
187	121	1208
125	206	220
124	139	683
57	82	280
166	155	345
184	21	604
160	175	597
215	62	1213
0	144	582
155	64	460
79	198	792
129	135	327
219	42	844
9	17	614
91	94	898
176	160	646
83	163	45
202	45	360
136	132	186
89	159	398
112	8	596
112	179	246
11	189	394
163	44	1131
159	80	1310
204	200	136
91	182	128
169	135	858
25	95	784
18	219	437
161	118	598
98	120	5
52	117	245
58	20	213
219	176	1079
201	174	15
96	218	617
206	107	275
20	101	111
212	166	929
42	65	660
157	55	541
185	137	40
11	116	507
68	13	649
182	65	804
91	21	999
14	185	230
2	179	38
203	63	335
47	209	398
201	2	767
131	73	621
33	116	999
60	63	5
118	112	776
117	30	1303
24	73	693
145	99	128
76	134	1269
147	4	601
188	18	319
84	51	369
76	53	1000
30	182	642
204	167	39
77	179	180
12	119	1037
99	148	256
202	15	935
170	79	677
43	161	262
114	70	420
158	114	701
204	15	917
6	202	574
60	65	15
92	177	630
120	118	682
179	203	418
90	33	103
170	88	573
131	142	700
8	143	368
169	103	1247
134	182	1164
30	33	1305
169	44	57
148	57	159
22	35	153
18	94	613
56	118	857
97	22	1313
124	31	32
91	100	434
34	203	595
183	53	308
93	200	859
124	92	900
157	196	1155
117	178	1219
67	218	840
7	96	165
43	207	728
135	7	549
182	53	174
213	169	639
36	192	491
116	143	934
6	113	268
101	144	85
206	68	931
149	113	146
207	6	773
82	19	1020
15	3	518
168	56	1205
70	137	556
136	199	822
49	187	13
123	11	15
149	160	1119
82	103	234
104	72	706
156	32	1189
70	196	158
121	83	516
97	167	803
83	31	896
115	201	1158
67	5	919
203	28	559
29	14	6
184	72	35
73	8	819
35	59	315
79	152	1043
43	7	379
205	143	1003
153	44	63
130	194	800
9	150	20
44	36	1018
20	0	726
0	49	899
88	73	559
123	20	54
70	135	1167
103	217	1271
64	145	131
44	90	722
105	46	1149
164	6	357
197	25	976
83	118	855
176	141	479
23	197	1109
131	95	574
169	136	1216
25	54	922
161	190	611
127	111	881
138	54	596
209	155	1036
196	116	206
189	201	1036
40	149	667
87	67	911
49	175	351
48	143	1077
188	66	1252
138	127	947
144	5	729
217	73	520
106	114	978
16	33	185
200	180	551
189	88	1200
113	171	215
190	197	660
135	91	454
104	114	1157
31	80	408
132	205	167
140	182	673
16	163	1082
145	130	945
140	134	218
69	45	566
47	104	818
64	75	581
124	40	244
193	27	860
70	162	626
159	40	497
31	131	801
194	66	836
60	16	360
164	82	725
125	219	1291
160	20	1181
209	200	643
183	125	441
96	67	627
219	202	1097
146	197	758
77	201	231
123	162	153
5	193	41
195	139	207
182	202	45
171	211	395
139	169	367
13	157	481
143	48	603
3	210	283
175	33	555
112	109	675
56	198	1091
105	39	728
63	43	141
54	47	54
10	8	594
96	94	681
95	197	508
111	14	536
145	143	1127
1	77	547
20	38	417
208	214	856
16	207	1313
40	118	599
218	36	232
38	147	712
84	214	155
28	73	388
161	67	565
66	28	1008
100	193	235
3	102	687
52	66	803
79	219	158
1	186	705
44	55	1279
173	196	592
185	142	592
202	150	593
36	108	175
179	214	653
90	140	1150
131	123	846
214	17	111
179	185	312
36	213	670
212	56	1109
211	140	209
138	218	1286
173	163	562
109	90	1083
128	91	1268
206	39	711
40	14	1121
140	5	143
77	213	711
95	94	197
128	2	157
216	213	327
128	163	924
73	190	1025
148	123	471
5	41	612
172	84	966
56	89	12
27	186	872
25	194	911
23	187	428
213	152	408
64	31	289
63	160	934
167	9	974
93	106	177
196	91	30
101	2	487
94	164	23
190	48	1214
52	104	249
212	15	283
145	82	553
208	153	413
72	57	110
52	108	248
60	45	970
214	190	621
114	153	1113
192	110	18
97	91	151
162	203	730
172	103	1166
161	211	741
84	109	1043
148	152	868
136	140	159
174	182	1253
91	213	233
34	71	238
201	215	921
10	115	921
94	47	1141
3	50	238
67	18	1284
33	201	742
74	11	195
79	199	113
152	49	700
186	165	1207
57	181	1254
46	78	1079
35	147	245
91	78	1029
69	49	680
113	55	261
178	13	1165
19	174	1217
178	71	824
203	28	1154
162	131	992
66	141	816
119	72	743
177	32	399
202	113	1046
62	18	108
158	197	643
121	170	799
133	217	602
204	64	7
206	65	338
2	111	805
72	152	207
40	3	558
205	58	907
108	117	946
204	97	872
113	78	1243
140	143	544
147	85	1176
69	128	1149
117	178	474
203	155	521
206	123	900
216	90	811
127	158	740
39	191	221
61	168	538
177	199	962
138	160	817
67	79	849
50	14	958
97	82	1273
162	57	1033
125	136	904
130	189	167
135	186	389
134	214	661
27	175	463
125	188	643
145	202	394
149	8	325
42	164	831
144	42	447
84	15	959
28	70	756
2	88	405
51	12	138
178	192	402
66	47	858
87	54	950
124	60	279
33	93	774
46	138	867
181	90	98
4	86	921
152	87	106
93	188	173
57	5	370
108	36	1202
65	175	27
133	25	1235
51	204	887
63	121	472
151	69	182
86	25	465
47	21	628
47	160	1273
195	123	334
39	8	768
134	138	827
37	153	1001
73	71	439
48	84	1238
99	44	1118
166	113	425
149	210	406
49	201	1052
60	138	840
141	158	813
90	181	72
90	133	375
202	207	544
197	46	740
17	35	831
81	215	457
80	186	258
152	85	444
64	72	495
82	156	481
178	164	1186
91	25	1187
120	209	993
11	32	829
105	24	36
210	85	329
202	3	888
75	101	497
1	41	102
136	213	326
169	195	903
219	142	5
3	168	337
79	209	372
46	48	1311
67	0	291
0	34	626
17	215	260
96	12	89
170	49	224
176	117	659
76	72	749
81	12	1129
39	24	262
31	130	1128
132	105	1135
50	72	1317
191	72	801
118	106	986
171	180	621
97	58	388
49	154	794
210	45	682
96	168	604
219	86	525
27	202	476
26	194	1279
63	147	1230
28	140	429
198	111	1288
174	155	788
119	200	973
73	62	1041
62	135	1116
23	118	162
125	162	261
98	176	440
164	201	1043
148	26	555
137	132	862
203	4	762
14	41	609
63	138	387
161	66	1167
53	171	1293
98	179	646
193	188	1039
83	17	170
200	103	575
44	34	604
80	116	436
64	102	1265
78	126	289
160	84	1258
116	183	1047
49	80	255
210	148	884
199	103	776
112	142	736
81	71	611
16	83	462
187	53	1297
86	213	409
188	105	58
143	36	378
111	46	92
145	101	867
134	62	1286
144	152	346
27	136	1102
121	20	107
197	12	310
53	73	785
214	186	828
14	215	909
218	29	1098
141	29	430
210	170	21
144	64	357
166	147	823
68	117	1200
86	163	539
43	89	1007
194	125	1283
51	213	1163
59	112	1219
148	182	864
140	171	78
199	103	1189
66	21	615
170	105	169
97	22	1254
157	200	613
9	53	167
106	147	191
109	158	307
108	175	1137
52	47	669
165	96	1168
75	1	847
6	10	927
126	153	210
141	16	1068
189	185	834
184	45	548
140	12	1308
122	1	223
51	2	440
19	83	1156
19	134	1044
108	160	910
57	67	554
139	137	0
215	176	1199
109	112	534
43	41	1290
112	129	629
109	65	214
98	9	551
108	219	1296
21	1	257
218	132	287
188	39	1217
140	27	83
198	201	663
84	194	684
53	204	1194
26	150	1274
156	77	954
33	191	880
124	62	495
102	21	197
118	32	47
17	13	719
141	72	888
77	215	885
113	160	85
169	210	406
128	120	402
173	191	894
127	29	1208
74	58	632
103	31	760
0	4	650
139	112	933
124	117	1029
42	205	585
203	166	100
8	159	706
96	168	600
129	127	699
107	203	353
130	212	273
24	200	478
195	191	768
179	28	1089
5	207	703
8	90	330
179	97	1183
116	174	586
89	13	1104
24	89	1108
51	147	480
43	139	1183
130	89	135
39	216	772
65	134	775
145	40	18
179	130	1032
91	138	796
133	85	850
6	47	1038
3	214	541
74	134	238
50	214	589
77	177	1100
69	89	666